34263594_Assign_2
…
fit |>
  forecast(h = 24) |>
  hilo(level = 95) |>
  mutate(
    lower = `95%`$lower,
    upper = `95%`$upper
  )

## # A tsibble: 192 x 9 [1M]
## # Key:       State, Industry, .model [8]
##    State Industry .model    Month         Turnover .mean                   `95%`
##    <chr> <chr>    <chr>     <mth>           <dist> <dbl>                  <hilo>
##  1 Nort Other r arima 2021 Jan t(N(1.5, 0.012))  4.59 [3.679646,  5.652999]95
##  2 Nort Other r arima 2021 Feb t(N(1.4, 0.018))  4.21 [3.217368,  5.414151]95
##  3 Nort Other r arima 2021 Mar t(N(1.8, 0.025))  6.00 [4.346652,  8.079174]95
##  4 Nort Other r arima 2021 Apr t(N(1.8, 0.032))  6.41 [4.451577,  8.956597]95
##  5 Nort Other r arima 2021 May   t(N(2, 0.039))  7.75 [5.164866, 11.177824]95
##  6 Nort Other r arima 2021 Jun t(N(2.1, 0.046))  8.39 [5.393174, 12.469327]95
##  7 Nort Other r arima 2021 Jul t(N(2.2, 0.053))  9.33 [5.794977, 14.246679]95
##  8 Nort Other r arima 2021 Aug  t(N(2.1, 0.06))  8.16 [4.908470, 12.780406]95
##  9 Nort Other r arima 2021 Sep   t(N(2, 0.067))  7.57 [4.421245, 12.152675]95
## 10 Nort Other r arima 2021 Oct t(N(1.9, 0.073))  6.82 [3.866225, 11.187761]95
## #  182 more rows
## #  2 more variables: lower <dbl>, upper <dbl>
…
fulldatafit |> forecast(h=24) |>
  hilo(level = 80) |>
  mutate(
    lower = `80%`$lower,
    upper = `80%`$upper
  )

## # A tsibble: 48 x 9 [1M]
## # Key:       State, Industry, .model [2]
##    State              Industry           .model    Month          Turnover .mean
##    <chr>              <chr>              <chr>     <mth>            <dist> <dbl>
##  1 Northern Territory Other recreationa arima 2023 Jan t(N(1.7, 0.0098))  5.51
##  2 Northern Territory Other recreationa arima 2023 Feb  t(N(1.6, 0.014))  5.20
##  3 Northern Territory Other recreationa arima 2023 Mar  t(N(1.9, 0.018))  6.71
##  4 Northern Territory Other recreationa arima 2023 Apr  t(N(1.9, 0.022))  7.06
##  5 Northern Territory Other recreationa arima 2023 May    t(N(2, 0.026))  7.71
##  6 Northern Territory Other recreationa arima 2023 Jun   t(N(2.1, 0.03))  8.36
##  7 Northern Territory Other recreationa arima 2023 Jul  t(N(2.2, 0.035))  9.30
##  8 Northern Territory Other recreationa arima 2023 Aug  t(N(2.1, 0.039))  8.47
##  9 Northern Territory Other recreationa arima 2023 Sep  t(N(2.1, 0.043))  8.18
## 10 Northern Territory Other recreationa arima 2023 Oct    t(N(2, 0.047))  7.57
## #  38 more rows
## #  3 more variables: `80%` <hilo>, lower <dbl>, upper <dbl>
…
fulldatafit |> forecast(h=24) |>
  hilo(level = 80) |>
  mutate(
    lower = `80%`$lower,
    upper = `80%`$upper
  )

## # A tsibble: 48 x 9 [1M]
## # Key:       State, Industry, .model [2]
##    State              Industry           .model    Month          Turnover .mean
##    <chr>              <chr>              <chr>     <mth>            <dist> <dbl>
##  1 Northern Territory Other recreationa arima 2023 Jan t(N(1.7, 0.0098))  5.51
##  2 Northern Territory Other recreationa arima 2023 Feb  t(N(1.6, 0.014))  5.20
##  3 Northern Territory Other recreationa arima 2023 Mar  t(N(1.9, 0.018))  6.71
##  4 Northern Territory Other recreationa arima 2023 Apr  t(N(1.9, 0.022))  7.06
##  5 Northern Territory Other recreationa arima 2023 May    t(N(2, 0.026))  7.71
##  6 Northern Territory Other recreationa arima 2023 Jun   t(N(2.1, 0.03))  8.36
##  7 Northern Territory Other recreationa arima 2023 Jul  t(N(2.2, 0.035))  9.30
##  8 Northern Territory Other recreationa arima 2023 Aug  t(N(2.1, 0.039))  8.47
##  9 Northern Territory Other recreationa arima 2023 Sep  t(N(2.1, 0.043))  8.18
## 10 Northern Territory Other recreationa arima 2023 Oct    t(N(2, 0.047))  7.57
## #  38 more rows
## #  3 more variables: `80%` <hilo>, lower <dbl>, upper <dbl>

fulldatafit |> forecast(h=24)|> mutate(
  first_moment = mean(log(Turnover)),
  med = median(log(Turnover)),
  var = distributional::variance(log(Turnover)),
)

## # A fable: 48 x 9 [1M]
## # Key:     State, Industry, .model [2]
##    State     Industry .model    Month          Turnover .mean first_moment   med
##    <chr>     <chr>    <chr>     <mth>            <dist> <dbl>        <dbl> <dbl>
##  1 Northern Other r arima 2023 Jan t(N(1.7, 0.0098))  5.51         1.70  1.70
##  2 Northern Other r arima 2023 Feb  t(N(1.6, 0.014))  5.20         1.64  1.64
##  3 Northern Other r arima 2023 Mar  t(N(1.9, 0.018))  6.71         1.89  1.89
##  4 Northern Other r arima 2023 Apr  t(N(1.9, 0.022))  7.06         1.94  1.94
##  5 Northern Other r arima 2023 May    t(N(2, 0.026))  7.71         2.03  2.03
##  6 Northern Other r arima 2023 Jun   t(N(2.1, 0.03))  8.36         2.11  2.11
##  7 Northern Other r arima 2023 Jul  t(N(2.2, 0.035))  9.30         2.21  2.21
##  8 Northern Other r arima 2023 Aug  t(N(2.1, 0.039))  8.47         2.12  2.12
##  9 Northern Other r arima 2023 Sep  t(N(2.1, 0.043))  8.18         2.08  2.08
## 10 Northern Other r arima 2023 Oct    t(N(2, 0.047))  7.57         2.00  2.00
## #  38 more rows
## #  1 more variable: var <dbl>
…
